2019-08-01
2019-08-08
2019-08-15
2019-08-22
2019-08-29
2019-09-05
2019-09-12
2019-09-19
2019-09-26
2019-10-03
2019-10-10
2019-10-17
2019-10-24
2019-10-31
2019-11-07
2019-11-14
2019-11-21
2019-11-28
2019-12-05
2019-12-12
2019-12-19
2019-12-26
2020-01-02
2020-01-09
2020-01-16
2020-01-23
2020-01-30
2020-02-06
